EESchema Schematic File Version 2
LIBS:power
LIBS:device
LIBS:transistors
LIBS:conn
LIBS:linear
LIBS:regul
LIBS:74xx
LIBS:cmos4000
LIBS:adc-dac
LIBS:memory
LIBS:xilinx
LIBS:microcontrollers
LIBS:dsp
LIBS:microchip
LIBS:analog_switches
LIBS:motorola
LIBS:texas
LIBS:intel
LIBS:audio
LIBS:interface
LIBS:digital-audio
LIBS:philips
LIBS:display
LIBS:cypress
LIBS:siliconi
LIBS:opto
LIBS:atmel
LIBS:contrib
LIBS:valves
LIBS:arduino
LIBS:nrf24l01
LIBS:irm-05-5
LIBS:lm3940
LIBS:mysensors-usb-clock-cache
EELAYER 25 0
EELAYER END
$Descr A4 11693 8268
encoding utf-8
Sheet 1 1
Title ""
Date ""
Rev ""
Comp ""
Comment1 ""
Comment2 ""
Comment3 ""
Comment4 ""
$EndDescr
$Comp
L arduino_nano U2
U 1 1 59907DA5
P 3800 5200
F 0 "U2" H 4100 4150 70  0000 C CNN
F 1 "arduino_nano" H 4100 4400 70  0000 C CNN
F 2 "myMicroControllers:Arduino-nano" H 4150 6250 60  0000 C CNN
F 3 "" H 3800 5200 60  0000 C CNN
	1    3800 5200
	1    0    0    -1  
$EndComp
$Comp
L NRF24L01 U4
U 1 1 59907F10
P 7000 4900
F 0 "U4" H 7000 4900 60  0000 C CNN
F 1 "NRF24L01" H 7025 5600 60  0000 C CNN
F 2 "myModules:NRF24L01" H 7000 4900 60  0001 C CNN
F 3 "" H 7000 4900 60  0000 C CNN
	1    7000 4900
	-1   0    0    1   
$EndComp
$Comp
L GND #PWR01
U 1 1 59907F81
P 7550 5650
F 0 "#PWR01" H 7550 5400 50  0001 C CNN
F 1 "GND" H 7550 5500 50  0000 C CNN
F 2 "" H 7550 5650 50  0000 C CNN
F 3 "" H 7550 5650 50  0000 C CNN
	1    7550 5650
	1    0    0    -1  
$EndComp
Wire Wire Line
	7450 5450 7550 5450
Wire Wire Line
	7550 5450 7550 5650
$Comp
L +3V3 #PWR02
U 1 1 59907FD5
P 6300 3950
F 0 "#PWR02" H 6300 3800 50  0001 C CNN
F 1 "+3V3" H 6300 4090 50  0000 C CNN
F 2 "" H 6300 3950 50  0000 C CNN
F 3 "" H 6300 3950 50  0000 C CNN
	1    6300 3950
	1    0    0    -1  
$EndComp
Wire Wire Line
	6300 3950 6300 5950
Wire Wire Line
	6300 5450 6500 5450
Wire Wire Line
	7450 5300 7650 5300
Wire Wire Line
	7650 5300 7650 4650
Wire Wire Line
	7650 4650 6100 4650
Wire Wire Line
	6100 4650 6100 5100
Wire Wire Line
	6100 5100 5150 5100
Wire Wire Line
	6150 5300 6500 5300
Wire Wire Line
	6150 4950 6150 5300
Wire Wire Line
	7600 5150 7450 5150
Wire Wire Line
	7600 4050 7600 5150
Wire Wire Line
	7600 4050 2950 4050
Wire Wire Line
	2950 4050 2950 4350
Wire Wire Line
	2950 4350 3100 4350
Wire Wire Line
	6500 5150 6200 5150
Wire Wire Line
	6200 5150 6200 4500
Wire Wire Line
	6200 4500 5150 4500
Wire Wire Line
	7450 5000 7550 5000
Wire Wire Line
	7550 5000 7550 4350
Wire Wire Line
	7550 4350 5150 4350
Wire Wire Line
	6500 5000 6250 5000
Wire Wire Line
	6250 5000 6250 5850
Wire Wire Line
	6250 5850 5150 5850
$Comp
L GND #PWR03
U 1 1 59908427
P 2750 6550
F 0 "#PWR03" H 2750 6300 50  0001 C CNN
F 1 "GND" H 2750 6400 50  0000 C CNN
F 2 "" H 2750 6550 50  0000 C CNN
F 3 "" H 2750 6550 50  0000 C CNN
	1    2750 6550
	1    0    0    -1  
$EndComp
$Comp
L +5V #PWR04
U 1 1 5990842D
P 2750 5850
F 0 "#PWR04" H 2750 5700 50  0001 C CNN
F 1 "+5V" H 2750 5990 50  0000 C CNN
F 2 "" H 2750 5850 50  0000 C CNN
F 3 "" H 2750 5850 50  0000 C CNN
	1    2750 5850
	1    0    0    -1  
$EndComp
Wire Wire Line
	2550 6000 3100 6000
Wire Wire Line
	2750 6300 3100 6300
Wire Wire Line
	2750 6300 2750 6550
Wire Wire Line
	2750 5850 2750 6000
$Comp
L +3V3 #PWR05
U 1 1 599181B2
P 2750 4300
F 0 "#PWR05" H 2750 4150 50  0001 C CNN
F 1 "+3V3" H 2750 4440 50  0000 C CNN
F 2 "" H 2750 4300 50  0000 C CNN
F 3 "" H 2750 4300 50  0000 C CNN
	1    2750 4300
	1    0    0    -1  
$EndComp
Wire Wire Line
	2750 4300 2750 4500
Wire Wire Line
	2750 4500 3100 4500
$Comp
L C C1
U 1 1 599181BA
P 6300 6100
F 0 "C1" H 6325 6200 50  0000 L CNN
F 1 "100nF" H 6325 6000 50  0000 L CNN
F 2 "Capacitors_ThroughHole:C_Rect_L7_W2_P5" H 6338 5950 50  0001 C CNN
F 3 "" H 6300 6100 50  0000 C CNN
	1    6300 6100
	1    0    0    -1  
$EndComp
$Comp
L GND #PWR06
U 1 1 599181C2
P 6300 6350
F 0 "#PWR06" H 6300 6100 50  0001 C CNN
F 1 "GND" H 6300 6200 50  0000 C CNN
F 2 "" H 6300 6350 50  0000 C CNN
F 3 "" H 6300 6350 50  0000 C CNN
	1    6300 6350
	1    0    0    -1  
$EndComp
$Comp
L C C2
U 1 1 599184ED
P 2550 6250
F 0 "C2" H 2575 6350 50  0000 L CNN
F 1 "100nF" H 2575 6150 50  0000 L CNN
F 2 "Capacitors_ThroughHole:C_Rect_L7_W2_P5" H 2588 6100 50  0001 C CNN
F 3 "" H 2550 6250 50  0000 C CNN
	1    2550 6250
	1    0    0    -1  
$EndComp
Wire Wire Line
	2550 6100 2550 6000
Wire Wire Line
	2750 6450 2550 6450
Wire Wire Line
	2550 6450 2550 6400
Connection ~ 2750 6450
Connection ~ 2750 6000
Connection ~ 6300 5450
Wire Wire Line
	6300 6350 6300 6250
$Comp
L CC56-12 AFF1
U 1 1 5A1007C7
P 5600 2100
F 0 "AFF1" H 5600 2850 50  0000 C CNN
F 1 "CC56-12" H 5600 2750 50  0000 C CNN
F 2 "Displays_7-Segment:Cx56-12" H 5100 2100 50  0001 C CNN
F 3 "" H 5100 2100 50  0000 C CNN
	1    5600 2100
	1    0    0    -1  
$EndComp
Wire Wire Line
	6400 1400 6400 1200
Wire Wire Line
	6400 1200 2600 1200
Wire Wire Line
	2600 1200 2600 5250
Wire Wire Line
	5900 1400 5900 1150
Wire Wire Line
	5900 1150 2550 1150
Wire Wire Line
	2550 1150 2550 4800
Wire Wire Line
	2500 4950 2500 1100
Wire Wire Line
	2500 1100 5400 1100
Wire Wire Line
	5400 1100 5400 1400
Wire Wire Line
	4900 1400 4900 1050
Wire Wire Line
	4900 1050 2450 1050
Wire Wire Line
	2450 1050 2450 5100
$Comp
L R R1
U 1 1 5A1008FE
P 5700 3250
F 0 "R1" V 5750 3450 50  0000 C CNN
F 1 "470" V 5700 3250 50  0000 C CNN
F 2 "Resistors_ThroughHole:Resistor_Horizontal_RM10mm" V 5630 3250 50  0001 C CNN
F 3 "" H 5700 3250 50  0000 C CNN
	1    5700 3250
	1    0    0    -1  
$EndComp
Wire Wire Line
	5300 3100 5300 2800
$Comp
L R R2
U 1 1 5A100992
P 5600 3250
F 0 "R2" V 5650 3450 50  0000 C CNN
F 1 "470" V 5600 3250 50  0000 C CNN
F 2 "Resistors_ThroughHole:Resistor_Horizontal_RM10mm" V 5530 3250 50  0001 C CNN
F 3 "" H 5600 3250 50  0000 C CNN
	1    5600 3250
	1    0    0    -1  
$EndComp
$Comp
L R R3
U 1 1 5A1009B7
P 5500 3250
F 0 "R3" V 5550 3450 50  0000 C CNN
F 1 "470" V 5500 3250 50  0000 C CNN
F 2 "Resistors_ThroughHole:Resistor_Horizontal_RM10mm" V 5430 3250 50  0001 C CNN
F 3 "" H 5500 3250 50  0000 C CNN
	1    5500 3250
	1    0    0    -1  
$EndComp
$Comp
L R R4
U 1 1 5A1009DF
P 5400 3250
F 0 "R4" V 5450 3450 50  0000 C CNN
F 1 "470" V 5400 3250 50  0000 C CNN
F 2 "Resistors_ThroughHole:Resistor_Horizontal_RM10mm" V 5330 3250 50  0001 C CNN
F 3 "" H 5400 3250 50  0000 C CNN
	1    5400 3250
	1    0    0    -1  
$EndComp
$Comp
L R R5
U 1 1 5A100A0A
P 5800 3250
F 0 "R5" V 5850 3450 50  0000 C CNN
F 1 "470" V 5800 3250 50  0000 C CNN
F 2 "Resistors_ThroughHole:Resistor_Horizontal_RM10mm" V 5730 3250 50  0001 C CNN
F 3 "" H 5800 3250 50  0000 C CNN
	1    5800 3250
	1    0    0    -1  
$EndComp
$Comp
L R R6
U 1 1 5A100A38
P 5300 3250
F 0 "R6" V 5350 3450 50  0000 C CNN
F 1 "470" V 5300 3250 50  0000 C CNN
F 2 "Resistors_ThroughHole:Resistor_Horizontal_RM10mm" V 5230 3250 50  0001 C CNN
F 3 "" H 5300 3250 50  0000 C CNN
	1    5300 3250
	1    0    0    -1  
$EndComp
$Comp
L R R7
U 1 1 5A100A69
P 5900 3250
F 0 "R7" V 5950 3450 50  0000 C CNN
F 1 "470" V 5900 3250 50  0000 C CNN
F 2 "Resistors_ThroughHole:Resistor_Horizontal_RM10mm" V 5830 3250 50  0001 C CNN
F 3 "" H 5900 3250 50  0000 C CNN
	1    5900 3250
	1    0    0    -1  
$EndComp
$Comp
L R R8
U 1 1 5A100A9D
P 6000 3250
F 0 "R8" V 6050 3450 50  0000 C CNN
F 1 "470" V 6000 3250 50  0000 C CNN
F 2 "Resistors_ThroughHole:Resistor_Horizontal_RM10mm" V 5930 3250 50  0001 C CNN
F 3 "" H 6000 3250 50  0000 C CNN
	1    6000 3250
	1    0    0    -1  
$EndComp
Wire Wire Line
	6000 3100 6000 2800
Wire Wire Line
	5900 2800 5900 3100
Wire Wire Line
	5800 3100 5800 2800
Wire Wire Line
	5700 2800 5700 3100
Wire Wire Line
	5600 3100 5600 2800
Wire Wire Line
	5500 2800 5500 3100
Wire Wire Line
	5400 3100 5400 2800
Wire Wire Line
	5300 3400 5300 5400
Wire Wire Line
	5400 5700 5400 3400
Wire Wire Line
	5500 3400 5500 5250
Wire Wire Line
	5600 4800 5600 3400
Wire Wire Line
	5700 3400 5700 4650
Wire Wire Line
	5800 3400 5800 5550
Wire Wire Line
	5900 3400 5900 6800
Wire Wire Line
	3000 5400 3000 6800
Wire Wire Line
	6000 3400 6000 6900
Wire Wire Line
	2950 5550 2950 6900
Wire Wire Line
	2600 5250 3100 5250
Wire Wire Line
	2550 4800 3100 4800
Wire Wire Line
	2500 4950 3100 4950
Wire Wire Line
	2450 5100 3100 5100
Wire Wire Line
	2950 6900 6000 6900
Wire Wire Line
	3000 6800 5900 6800
Wire Wire Line
	5150 4950 6150 4950
Wire Wire Line
	5400 5700 5150 5700
Wire Wire Line
	5700 4650 5150 4650
Wire Wire Line
	5600 4800 5150 4800
Wire Wire Line
	5800 5550 5150 5550
Wire Wire Line
	5300 5400 5150 5400
Wire Wire Line
	5500 5250 5150 5250
Wire Wire Line
	3000 5400 3100 5400
Wire Wire Line
	2950 5550 3100 5550
$EndSCHEMATC
